…
``` r
print(cran_sample)
```

    ## # A tibble: 1,462 x 3
    ##          date package count
    ##        <date>   <chr> <int>
    ##  1 2015-01-01 ggplot2   817
    ##  2 2015-01-02 ggplot2  1218
    ##  3 2015-01-03 ggplot2  1063
    ##  4 2015-01-04 ggplot2  1106
    ##  5 2015-01-05 ggplot2  2171
    ##  6 2015-01-06 ggplot2  2455
    ##  7 2015-01-07 ggplot2  2739
    ##  8 2015-01-08 ggplot2  2732
    ##  9 2015-01-09 ggplot2  2661
    ## 10 2015-01-10 ggplot2  1451
    ## # ... with 1,452 more rows
…
