…
``` r
print(data_weekend)
```

    ## # A tibble: 731 x 5
    ##          date observation probability prediction  strength
    ##        <date>       <chr>       <dbl>      <chr>     <dbl>
    ##  1 2015-01-01     weekday  0.04917553    weekday 0.9016489
    ##  2 2015-01-02     weekday  0.09174387    weekday 0.8165123
    ##  3 2015-01-03     weekend  0.77415601    weekend 0.5483120
    ##  4 2015-01-04     weekend  0.92614999    weekend 0.8523000
    ##  5 2015-01-05     weekday  0.14133849    weekday 0.7173230
    ##  6 2015-01-06     weekday  0.12240220    weekday 0.7551956
    ##  7 2015-01-07     weekday  0.12846693    weekday 0.7430661
    ##  8 2015-01-08     weekday  0.29247582    weekday 0.4150484
    ##  9 2015-01-09     weekday  0.03846222    weekday 0.9230756
    ## 10 2015-01-10     weekend  0.89943497    weekend 0.7988699
    ## # ... with 721 more rows
…
